{ "name": "Krosus",
  "length": 360,
  "abilities": [
    {
      "name":"Slam",
      "type":"burst",
      "timing": "interval",
      "first":33,
      "targets":20,
      "interval":30,
      "width":10
    },
    {
      "name":"Orb of Destruction",
      "type":"burst",
      "timing": "exact",
      "targets":20,
      "width":10,
      "times": [25, 85, 108, 170, 197, 222, 237, 252, 267, 297]
    },
    {
      "name":"Burning Pitch",
      "type":"burst",
      "timing": "exact",
      "targets":20,
      "width":10,
      "times": [54, 139, 229, 322]
    }
  ]
}
